<svg width="24" height="24" viewBox="0 0 24 24" fill="none" xmlns="http://www.w3.org/2000/svg">
<path fill-rule="evenodd" clip-rule="evenodd" d="M6 9C6.55228 9 7 9.44771 7 10V13H10C10.5128 13 10.9355 13.386 10.9933 13.8834L11 14V17H14C14.5128 17 14.9355 17.386 14.9933 17.8834L15 18V22C15 22.5523 14.5523 23 14 23C13.4477 23 13 22.5523 13 22V19H10C9.48716 19 9.06449 18.614 9.00673 18.1166L9 18V15H6C5.48716 15 5.06449 14.614 5.00673 14.1166L5 14V11H2C1.48716 11 1.06449 10.614 1.00673 10.1166L1 10C1 9.44771 1.44772 9 2 9H6Z" fill="black"/>
<path fill-rule="evenodd" clip-rule="evenodd" d="M22 1C22.5523 1 23 1.44772 23 2V22C23 22.5523 22.5523 23 22 23C21.4477 23 21 22.5523 21 22V3H2C1.48716 3 1.06449 2.61396 1.00673 2.11662L1 2C1 1.44772 1.44772 1 2 1H22Z" fill="black"/>
<path fill-rule="evenodd" clip-rule="evenodd" d="M11.2929 5.29289C11.6834 4.90237 12.3166 4.90237 12.7071 5.29289L17.7071 10.2929C18.0976 10.6834 18.0976 11.3166 17.7071 11.7071C17.3166 12.0976 16.6834 12.0976 16.2929 11.7071L11.2929 6.70711C10.9024 6.31658 10.9024 5.68342 11.2929 5.29289Z" fill="black"/>
<path fill-rule="evenodd" clip-rule="evenodd" d="M17 7C17.5523 7 18 7.44772 18 8V11C18 11.5523 17.5523 12 17 12C16.4477 12 16 11.5523 16 11V8C16 7.44772 16.4477 7 17 7Z" fill="black"/>
<path fill-rule="evenodd" clip-rule="evenodd" d="M17 10C17.5523 10 18 10.4477 18 11C18 11.5523 17.5523 12 17 12H14C13.4477 12 13 11.5523 13 11C13 10.4477 13.4477 10 14 10H17Z" fill="black"/>
</svg>
