<svg width="24" height="24" viewBox="0 0 24 24" fill="none" xmlns="http://www.w3.org/2000/svg">
<path d="M6.99327 7.88338C6.93551 7.38604 6.51284 7 6 7C5.44772 7 5 7.44772 5 8V16L5.00673 16.1166C5.012 16.162 5.02031 16.2064 5.03144 16.2498C4.41634 16.5909 4 17.2468 4 18C4 19.1046 4.89543 20 6 20C7.10457 20 8 19.1046 8 18C8 17.2468 7.58366 16.5909 6.96856 16.2498C6.98908 16.1699 7 16.0862 7 16V8L6.99327 7.88338Z" fill="black"/>
<path fill-rule="evenodd" clip-rule="evenodd" d="M5.80036 1.0049C3.68397 1.10892 2 2.8578 2 5L1.999 15.002L1.92898 15.0965C1.3306 15.9339 1 16.9423 1 18C1 20.7614 3.23858 23 6 23C8.76142 23 11 20.7614 11 18L10.9932 17.7368C10.9431 16.776 10.6199 15.8651 10.0719 15.0976L10 15.003V4.99991C10 2.79086 8.20914 1 6 1L5.80036 1.0049ZM6 3C7.10457 3 8 3.89543 8 5L8.00096 15.3554C8.00098 15.5989 8.08988 15.8341 8.25098 16.0167C8.73127 16.5613 9 17.2585 9 18C9 19.6569 7.65685 21 6 21C4.34315 21 3 19.6569 3 18C3 17.2581 3.26899 16.5606 3.7497 16.016C3.91095 15.8332 3.99994 15.5979 3.99994 15.3542L4 5.00001C4 3.89543 4.89543 3 6 3Z" fill="black"/>
<path d="M18 12.5C18 9.46243 15.5376 7 12.5 7C11.9477 7 11.5 7.44772 11.5 8C11.5 8.55228 11.9477 9 12.5 9C14.433 9 16 10.567 16 12.5C16 13.6792 15.4135 14.7575 14.4532 15.4049C13.9952 15.7136 13.8742 16.3351 14.1829 16.793C14.4916 17.251 15.1131 17.372 15.5711 17.0633C17.0772 16.048 18 14.3514 18 12.5Z" fill="black"/>
<path d="M13 2C13.5128 2 13.9355 2.38604 13.9933 2.88338L14 3V5C14 5.55228 13.5523 6 13 6C12.4872 6 12.0645 5.61396 12.0067 5.11662L12 5V3C12 2.44772 12.4477 2 13 2Z" fill="black"/>
<path d="M18.9232 17.0185C18.5307 16.7077 17.9588 16.7336 17.5962 17.0962C17.2057 17.4867 17.2057 18.1199 17.5962 18.5104L19.0104 19.9246L19.0976 20.0023C19.4901 20.3132 20.062 20.2873 20.4246 19.9246C20.8151 19.5341 20.8151 18.9009 20.4246 18.5104L19.0104 17.0962L18.9232 17.0185Z" fill="black"/>
<path d="M19.5 12.5C19.5 11.9872 19.886 11.5645 20.3834 11.5067L20.5 11.5H22.5C23.0523 11.5 23.5 11.9477 23.5 12.5C23.5 13.0128 23.114 13.4355 22.6166 13.4933L22.5 13.5H20.5C19.9477 13.5 19.5 13.0523 19.5 12.5Z" fill="black"/>
<path d="M17.5185 6.57681C17.2077 6.96933 17.2336 7.54118 17.5962 7.90381C17.9867 8.29433 18.6199 8.29433 19.0104 7.90381L20.4246 6.48959L20.5023 6.40237C20.8132 6.00985 20.7873 5.43801 20.4246 5.07538C20.0341 4.68485 19.4009 4.68485 19.0104 5.07538L17.5962 6.48959L17.5185 6.57681Z" fill="black"/>
</svg>
