<svg width="24" height="24" viewBox="0 0 24 24" xmlns="http://www.w3.org/2000/svg">
    <path
        d="M14.7595 13.2427H3.25735C2.70507 13.2427 2.25735 12.795 2.25735 12.2427C2.25735 11.6905 2.70507 11.2427 3.25735 11.2427H14.7595C15.3118 11.2427 15.7595 11.6905 15.7595 12.2427C15.7595 12.795 15.3118 13.2427 14.7595 13.2427ZM11.5502 20.0209L19.3284 12.2427L11.5502 4.46457C11.1597 4.07405 11.1597 3.44088 11.5502 3.05036C11.9408 2.65983 12.5739 2.65983 12.9645 3.05036L21.4497 11.5356C21.8403 11.9262 21.8403 12.5593 21.4497 12.9499L12.9645 21.4351C12.5739 21.8257 11.9408 21.8257 11.5502 21.4351C11.1597 21.0446 11.1597 20.4114 11.5502 20.0209Z" />
</svg>