<svg width="24" height="24" viewBox="0 0 24 24"  xmlns="http://www.w3.org/2000/svg">
<path   d="M14.5586 9.56076C15.3312 9.56076 15.812 10.3996 15.4214 11.0662L12.9235 15.3304C12.5373 15.9898 11.5841 15.9898 11.1978 15.3304L8.6999 11.0662C8.30939 10.3996 8.79015 9.56076 9.56276 9.56076L14.5586 9.56076Z" />
</svg>
