<svg width="24" height="24" viewBox="0 0 24 24" fill="none" xmlns="http://www.w3.org/2000/svg">
<path fill-rule="evenodd" clip-rule="evenodd" d="M12 22C17.5228 22 22 17.5228 22 12C22 6.47715 17.5228 2 12 2C6.47715 2 2 6.47715 2 12C2 17.5228 6.47715 22 12 22ZM12 24C5.37258 24 0 18.6274 0 12C0 5.37258 5.37258 0 12 0C18.6274 0 24 5.37258 24 12C24 18.6274 18.6274 24 12 24Z" fill="black"/>
<path fill-rule="evenodd" clip-rule="evenodd" d="M9.59 15.58L6.12461 12.1146C5.73506 11.7251 5.10343 11.7244 4.71251 12.1125C4.31963 12.5026 4.31811 13.1381 4.70961 13.5296L9.59 18.41L18.5174 9.38414C18.9031 8.99424 18.9013 8.36605 18.5135 7.97827C18.1227 7.58738 17.4883 7.58923 17.0997 7.98239L9.59 15.58Z" fill="black"/>
</svg>
