<svg width="24" height="24" viewBox="0 0 24 24" fill="none" xmlns="http://www.w3.org/2000/svg">
<path d="M10 8C10.5128 8 10.9355 8.38604 10.9933 8.88338L11 9V17C11 17.5523 10.5523 18 10 18C9.48716 18 9.06449 17.614 9.00673 17.1166L9 17V9C9 8.44772 9.44772 8 10 8Z" fill="black"/>
<path d="M14.9933 8.88338C14.9355 8.38604 14.5128 8 14 8C13.4477 8 13 8.44772 13 9V17L13.0067 17.1166C13.0645 17.614 13.4872 18 14 18C14.5523 18 15 17.5523 15 17V9L14.9933 8.88338Z" fill="black"/>
<path fill-rule="evenodd" clip-rule="evenodd" d="M10 3H14C14.5523 3 15 3.44772 15 4V5H19C19.5523 5 20 5.44772 20 6C20 6.51284 19.614 6.93551 19.1166 6.99327L19 7V18C19 20.1422 17.316 21.8911 15.1996 21.9951L15 22H9C6.8578 22 5.10892 20.316 5.0049 18.1996L5 18V7C4.44772 7 4 6.55228 4 6C4 5.48716 4.38604 5.06449 4.88338 5.00673L5 5H9V4C9 3.44772 9.44772 3 10 3ZM7 7V18C7 19.0544 7.81588 19.9182 8.85074 19.9945L9 20H15C16.0544 20 16.9182 19.1841 16.9945 18.1493L17 18V7H7Z" fill="black"/>
</svg>
