<svg width="24" height="24" viewBox="0 0 24 24" fill="none" xmlns="http://www.w3.org/2000/svg">
<path fill-rule="evenodd" clip-rule="evenodd" d="M18 8C18 11.3139 15.3129 14 11.9987 14C8.68565 14 6 11.3139 6 8C6 4.68615 8.68565 2 11.9987 2C15.3129 2 18 4.68607 18 8ZM16 8C16 5.79081 14.2085 4 11.9987 4C9.7903 4 8 5.79064 8 8C8 10.2094 9.7903 12 11.9987 12C14.2085 12 16 10.2092 16 8Z" fill="black"/>
<path d="M19.8698 19.3146C17.8138 17.2095 15.0018 16 12 16C9.01705 16 6.22114 17.1943 4.16794 19.2761C3.78012 19.6693 3.7845 20.3025 4.17771 20.6903C4.57093 21.0781 5.20408 21.0737 5.59189 20.6805C7.27301 18.976 9.55781 18 12 18C14.4576 18 16.7556 18.9884 18.4391 20.712C18.8249 21.1071 19.4581 21.1146 19.8532 20.7287C20.2483 20.3428 20.2557 19.7097 19.8698 19.3146Z" fill="black"/>
</svg>
