<svg width="24" height="24" viewBox="0 0 24 24" fill="none" xmlns="http://www.w3.org/2000/svg">
<path d="M3.31034 6H21C21.5523 6 22 5.55228 22 5C22 4.44772 21.5523 4 21 4H3.31034C2.75805 4 2.31034 4.44772 2.31034 5C2.31034 5.55228 2.75805 6 3.31034 6Z" fill="black"/>
<path d="M3.15516 12H20.8448C21.3971 12 21.8448 11.5523 21.8448 11C21.8448 10.4477 21.3971 10 20.8448 10H3.15516C2.60288 10 2.15516 10.4477 2.15516 11C2.15516 11.5523 2.60288 12 3.15516 12Z" fill="black"/>
<path d="M3.05749 20V16.738L4.33149 19.167H4.87049L6.14449 16.738V20H7.11049V15.03H6.08149L4.59749 17.858L3.12749 15.03H2.09149V20H3.05749Z" fill="black"/>
<path d="M11.4975 20V19.153H9.01249V17.858H11.1055V17.074H9.01249V15.877H11.4345V15.03H8.04649V20H11.4975Z" fill="black"/>
<path d="M13.1195 16.808V20H12.1535V15.03H12.9235L15.4925 18.306V15.037H16.4585V20H15.6535L13.1195 16.808Z" fill="black"/>
<path d="M19.5015 20.035C19.8842 20.035 20.2132 19.9708 20.4885 19.8425C20.7638 19.7142 20.989 19.5368 21.164 19.3105C21.339 19.0842 21.4673 18.8217 21.549 18.523C21.6307 18.2243 21.6715 17.9047 21.6715 17.564V15.03H20.7125V17.564C20.7125 17.7647 20.6915 17.9618 20.6495 18.1555C20.6075 18.3492 20.541 18.523 20.45 18.677C20.359 18.831 20.2353 18.9535 20.079 19.0445C19.9227 19.1355 19.7278 19.181 19.4945 19.181C19.2658 19.181 19.0745 19.1367 18.9205 19.048C18.7665 18.9593 18.6428 18.838 18.5495 18.684C18.4562 18.53 18.3897 18.3562 18.35 18.1625C18.3103 17.9688 18.2905 17.7693 18.2905 17.564V15.03H17.3245V17.564C17.3245 17.886 17.3642 18.1952 17.4435 18.4915C17.5228 18.7878 17.6477 19.0527 17.818 19.286C17.9883 19.5193 18.2123 19.7025 18.49 19.8355C18.7677 19.9685 19.1048 20.035 19.5015 20.035Z" fill="black"/>
</svg>
