<svg width="24" height="24" viewBox="0 0 24 24" fill="none" xmlns="http://www.w3.org/2000/svg">
<path d="M12 7.5C10.7574 7.5 9.75 6.49264 9.75 5.25C9.75 4.00736 10.7574 3 12 3C13.2426 3 14.25 4.00736 14.25 5.25C14.25 6.49264 13.2426 7.5 12 7.5Z" fill="black"/>
<path d="M12 21C10.7574 21 9.75 19.9926 9.75 18.75C9.75 17.5074 10.7574 16.5 12 16.5C13.2426 16.5 14.25 17.5074 14.25 18.75C14.25 19.9926 13.2426 21 12 21Z" fill="black"/>
<path d="M9.75 12.2045C9.75 13.4472 10.7574 14.4545 12 14.4545C13.2426 14.4545 14.25 13.4472 14.25 12.2045C14.25 10.9619 13.2426 9.95455 12 9.95455C10.7574 9.95455 9.75 10.9619 9.75 12.2045Z" fill="black"/>
</svg>
