<svg width="24" height="24" viewBox="0 0 24 24" fill="none" xmlns="http://www.w3.org/2000/svg">
<path fill-rule="evenodd" clip-rule="evenodd" d="M4 14H8V10H4V14ZM4 19H8V15H4V19ZM4 9H8V5H4V9ZM9 14H21V10H9V14ZM9 19H21V15H9V19ZM9 5V9H21V5H9Z" fill="black"/>
</svg>
