<svg width="24" height="24" viewBox="0 0 24 24" fill="none" xmlns="http://www.w3.org/2000/svg">
<path d="M6 6C6.55228 6 7 6.44772 7 7C7 7.51284 6.61396 7.93551 6.11662 7.99327L6 8H3C2.44772 8 2 7.55228 2 7C2 6.48716 2.38604 6.06449 2.88338 6.00673L3 6H6Z" fill="black"/>
<path fill-rule="evenodd" clip-rule="evenodd" d="M20.2929 10.7071C20.6834 11.0976 21.3166 11.0976 21.7071 10.7071C22.0976 10.3166 22.0976 9.68342 21.7071 9.29289L18.7071 6.29289C18.3166 5.90237 17.6834 5.90237 17.2929 6.29289L14.2929 9.29289C13.9024 9.68342 13.9024 10.3166 14.2929 10.7071C14.6834 11.0976 15.3166 11.0976 15.7071 10.7071L18 8.41421L20.2929 10.7071Z" fill="black"/>
<path d="M10 11C10.5523 11 11 11.4477 11 12C11 12.5128 10.614 12.9355 10.1166 12.9933L10 13H3C2.44772 13 2 12.5523 2 12C2 11.4872 2.38604 11.0645 2.88338 11.0067L3 11H10Z" fill="black"/>
<path fill-rule="evenodd" clip-rule="evenodd" d="M17 8.29412V16.7059C17 17.4206 17.4477 18 18 18C18.5523 18 19 17.4206 19 16.7059V8.29412C19 7.5794 18.5523 7 18 7C17.4477 7 17 7.5794 17 8.29412Z" fill="black"/>
<path d="M13 16C13.5523 16 14 16.4477 14 17C14 17.5128 13.614 17.9355 13.1166 17.9933L13 18H3C2.44772 18 2 17.5523 2 17C2 16.4872 2.38604 16.0645 2.88338 16.0067L3 16H13Z" fill="black"/>
</svg>
