<svg width="24" height="24" viewBox="0 0 24 24" fill="none" xmlns="http://www.w3.org/2000/svg">
<path fill-rule="evenodd" clip-rule="evenodd" d="M6.72601 4.31216C6.38466 3.95103 5.81981 3.89218 5.4087 4.19366C4.96334 4.52026 4.86706 5.14607 5.19366 5.59143L16.1937 20.5914L16.2741 20.688C16.6155 21.0491 17.1803 21.108 17.5914 20.8065C18.0368 20.4799 18.1331 19.8541 17.8065 19.4087L16.6238 17.7959C19.6064 16.3144 22 13.7774 22 12C22 9.34648 16.6651 5 12 5C10.6516 5 9.24729 5.36311 7.93199 5.9435L6.80647 4.4087L6.72601 4.31216ZM9.12228 7.56662L9.88377 8.60502C10.4976 8.22159 11.2229 8 12 8C14.2091 8 16 9.79086 16 12C16 13.2158 15.4576 14.3048 14.6016 15.0384L15.4463 16.1904C16.2441 15.8186 17.0139 15.3293 17.7323 14.744C19.0473 13.6726 20 12.3601 20 12C20 11.6399 19.0473 10.3274 17.7323 9.25604C16.0091 7.85206 13.9897 7 12 7C11.0354 7 10.0637 7.20027 9.12228 7.56662ZM13.4121 13.4163C13.7753 13.0543 14 12.5534 14 12C14 10.8954 13.1046 10 12 10C11.6656 10 11.3504 10.0821 11.0733 10.2272L13.4121 13.4163Z" fill="black"/>
<path d="M5.00178 7.69341C3.21929 9.07594 2 10.7314 2 12C2 14.6535 7.33491 19 12 19C12.4044 19 12.8138 18.9673 13.2243 18.906L11.825 16.9978C9.89219 16.9496 7.94043 16.1068 6.26767 14.744C4.95273 13.6726 4 12.3601 4 12C4 11.6467 4.91673 10.3771 6.19284 9.31758L5.00178 7.69341Z" fill="black"/>
<path d="M8.00545 11.7893C8.00183 11.8591 8 11.9293 8 12C8 13.8642 9.2753 15.4306 11.0011 15.8743L8.00545 11.7893Z" fill="black"/>
</svg>
