<svg width="24" height="24" viewBox="0 0 24 24" fill="none" xmlns="http://www.w3.org/2000/svg">
<path fill-rule="evenodd" clip-rule="evenodd" d="M6.88481 2.00637L6.99995 2H16.9999C17.7433 2 18.2268 2.78231 17.8944 3.44721L13.6179 12L17.8944 20.5528C18.2093 21.1827 17.792 21.918 17.1151 21.9936L16.9999 22H6.99995C6.25657 22 5.77307 21.2177 6.10552 20.5528L10.3809 12L6.10552 3.44721C5.79057 2.81731 6.20793 2.08202 6.88481 2.00637ZM14.4182 18.074L11.9999 13.236L9.60065 18.0346L14.4182 18.074ZM15.3819 3.999L11.9999 10.763L8.61695 3.999H15.3819Z" fill="black"/>
</svg>
