<svg width="24" height="24" viewBox="0 0 24 24" fill="none" xmlns="http://www.w3.org/2000/svg">
<path fill-rule="evenodd" clip-rule="evenodd" d="M6.00671 1.31703V1.99998H1.98622C1.44154 1.99998 1 2.44153 1 2.9862V23.0138C1 23.5584 1.44154 24 1.98622 24H6.98489L6.99344 24L7.00198 24H11.9915L12.0001 24L12.0086 24H16.9982L17.0068 24L17.0153 24H22.0138C22.5585 24 23 23.5584 23 23.0138V18.0245L23.0002 18.0071L23 17.9897V13.0173L23.0002 12.9999L23 12.9825V8.01018L23.0002 7.99276L23 7.97534V2.9862C23 2.44153 22.5585 1.99998 22.0138 1.99998H17.993V1.31703C17.993 0.772354 17.5514 0.330811 17.0068 0.330811C16.4621 0.330811 16.0206 0.772354 16.0206 1.31703V1.99998H7.97914V1.31703C7.97914 0.772354 7.5376 0.330811 6.99293 0.330811C6.44825 0.330811 6.00671 0.772354 6.00671 1.31703ZM16.0206 3.97242H7.97914V5.4897C7.97914 6.03437 7.5376 6.47592 6.99293 6.47592C6.44825 6.47592 6.00671 6.03437 6.00671 5.4897V3.97242H2.97243V7.00654H21.0276V3.97242H17.993V5.4897C17.993 6.03437 17.5514 6.47592 17.0068 6.47592C16.4621 6.47592 16.0206 6.03437 16.0206 5.4897V3.97242ZM17.993 22.0276H21.0276V18.9933H17.993V22.0276ZM16.0206 18.9933V22.0276H12.9863V18.9933H16.0206ZM17.993 17.0209H21.0276V13.9861H17.993V17.0209ZM16.0206 13.9861V17.0209H12.9863V13.9861H16.0206ZM17.993 12.0137H21.0276V8.97898H17.993V12.0137ZM16.0206 8.97898V12.0137H12.9863V8.97898H16.0206ZM11.0139 17.0209V13.9861H7.97965V17.0209H11.0139ZM11.0139 12.0137V8.97898H7.97965V12.0137H11.0139ZM11.0139 22.0276V18.9933H7.97965V22.0276H11.0139ZM6.00722 22.0276H2.97243V18.9933H6.00722V22.0276ZM6.00722 13.9861H2.97243V17.0209H6.00722V13.9861ZM6.00722 12.0137H2.97243V8.97898H6.00722V12.0137Z" fill="black"/>
</svg>
