<svg width="24" height="24" viewBox="0 0 24 24" fill="none" xmlns="http://www.w3.org/2000/svg">
<path d="M8.08489 14.0597C8.08489 13.5074 8.53261 13.0597 9.08489 13.0597H14.0346V12.2313C14.0346 11.3404 15.1118 10.8942 15.7417 11.5242L17.5702 13.3526C17.9607 13.7431 17.9607 14.3763 17.5702 14.7668L15.7417 16.5953C15.1118 17.2252 14.0346 16.7791 14.0346 15.8882V15.0597H9.08489C8.53261 15.0597 8.08489 14.612 8.08489 14.0597Z" fill="black"/>
<path fill-rule="evenodd" clip-rule="evenodd" d="M6.92963 3H3C1.34315 3 0 4.34315 0 6V19C0 20.6569 1.34315 22 3 22H21C22.6569 22 24 20.6569 24 19V9L23.9949 8.82373C23.9037 7.24892 22.5977 6 21 6H10.535L9.42578 4.3359C8.86939 3.5013 7.93269 3 6.92963 3ZM3 5H6.92963C7.26399 5 7.57622 5.1671 7.76168 5.4453L9.16795 7.5547C9.35342 7.8329 9.66565 8 10 8H21C21.5523 8 22 8.44772 22 9V19C22 19.5523 21.5523 20 21 20H3C2.44772 20 2 19.5523 2 19V6C2 5.44772 2.44772 5 3 5Z" fill="black"/>
</svg>
