<svg width="24" height="24" viewBox="0 0 24 24" fill="none" xmlns="http://www.w3.org/2000/svg">
<path fill-rule="evenodd" clip-rule="evenodd" d="M6 3H18C18.5523 3 19 3.44772 19 4V8H21C21.5523 8 22 8.44772 22 9V16C22 16.5523 21.5523 17 21 17H19V20C19 20.5523 18.5523 21 18 21H6C5.44772 21 5 20.5523 5 20V17H3C2.44772 17 2 16.5523 2 16V9C2 8.44772 2.44772 8 3 8H5V4C5 3.44772 5.44772 3 6 3ZM5 15V13C5 12.4872 5.38604 12.0645 5.88338 12.0067C5.92164 12.0023 5.96055 12 6 12H18C18.5523 12 19 12.4477 19 13V15H20V10H4V15H5ZM17 14H7V19H17V14ZM17 5V8H7V5H17Z" fill="black"/>
</svg>
