<svg width="24" height="24" viewBox="0 0 24 24" fill="none" xmlns="http://www.w3.org/2000/svg">
<path fill-rule="evenodd" clip-rule="evenodd" d="M15.6606 7.05937L9.78189 9.18069C9.50203 9.28168 9.28168 9.50203 9.18069 9.78189L7.05937 15.6606C6.77193 16.4571 7.54286 17.2281 8.33943 16.9406L14.2181 14.8193C14.498 14.7183 14.7183 14.498 14.8193 14.2181L16.9406 8.33943C17.2281 7.54286 16.4571 6.77193 15.6606 7.05937ZM14.337 9.662L13.097 13.097L9.662 14.337L10.902 10.902L14.337 9.662Z" fill="black"/>
<path fill-rule="evenodd" clip-rule="evenodd" d="M12 1C5.92487 1 1 5.92487 1 12C1 18.0751 5.92487 23 12 23C18.0751 23 23 18.0751 23 12C23 5.92487 18.0751 1 12 1ZM13 20.9451V20C13 19.4477 12.5523 19 12 19C11.4477 19 11 19.4477 11 20V20.9451C6.82838 20.4839 3.51608 17.1716 3.05493 13H4C4.55228 13 5 12.5523 5 12C5 11.4477 4.55228 11 4 11H3.05493C3.51608 6.82838 6.82838 3.51608 11 3.05493V4C11 4.55228 11.4477 5 12 5C12.5523 5 13 4.55228 13 4V3.05493C17.1716 3.51608 20.4839 6.82838 20.9451 11H20C19.4477 11 19 11.4477 19 12C19 12.5523 19.4477 13 20 13H20.9451C20.4839 17.1716 17.1716 20.4839 13 20.9451Z" fill="black"/>
</svg>
