<svg width="24" height="24" viewBox="0 0 24 24"  xmlns="http://www.w3.org/2000/svg">
<path   d="M13.3787 12.207L8.0858 17.4999C7.69528 17.8904 7.69528 18.5236 8.0858 18.9141C8.47633 19.3047 9.10949 19.3047 9.50001 18.9141L16.2071 12.207L9.50001 5.49992C9.10949 5.1094 8.47633 5.1094 8.0858 5.49992C7.69528 5.89045 7.69528 6.52361 8.0858 6.91414L13.3787 12.207Z" />
</svg>
