<svg width="24" height="24" viewBox="0 0 24 24"  xmlns="http://www.w3.org/2000/svg">
<path   d="M16.9478 7.04711C15.666 5.7674 13.9041 5 12 5C8.13401 5 5 8.13401 5 12C5 15.866 8.13401 19 12 19C13.5657 19 15.0554 18.4834 16.2702 17.547C16.7076 17.2099 16.7889 16.582 16.4517 16.1445C16.1146 15.7071 15.4866 15.6258 15.0492 15.963C14.1813 16.6319 13.12 17 12 17C9.23858 17 7 14.7614 7 12C7 9.23858 9.23858 7 12 7C13.3598 7 14.618 7.54776 15.5336 8.46131L13.702 10.2929C13.072 10.9229 13.5182 12 14.4091 12H18.9949C19.5472 12 19.9949 11.5523 19.9949 11V6.41421C19.9949 5.52331 18.9177 5.07714 18.2878 5.70711L16.9478 7.04711Z" />
</svg>
