<svg width="24" height="24" viewBox="0 0 24 24" fill="none" xmlns="http://www.w3.org/2000/svg">
<path fill-rule="evenodd" clip-rule="evenodd" d="M22.3145 8.09039L12.415 3.57551C12.1514 3.4553 11.8486 3.4553 11.5851 3.57551L1.68557 8.09039C0.905509 8.44615 0.90551 9.55431 1.68557 9.91007L2.00002 10.0535V12.0002C2.00002 12.5525 2.44773 13.0002 3.00002 13.0002C3.5523 13.0002 4.00002 12.5525 4.00002 12.0002V10.9656L5.00002 11.4217V15.0002L5.00495 15.1946C5.14575 17.9632 8.28566 20.0002 12 20.0002C15.8008 20.0002 19 17.8674 19 15.0002V11.4217L22.3145 9.91007C23.0945 9.55431 23.0945 8.44615 22.3145 8.09039ZM17 12.3338L12.415 14.425C12.1514 14.5452 11.8486 14.5452 11.5851 14.425L7.00002 12.3338V15.0002C7.00002 16.5513 9.17334 18.0002 12 18.0002C14.741 18.0002 16.8677 16.6378 16.9941 15.1409L17 15.0002V12.3338ZM19.4904 8.99952L12 12.4156L4.50964 8.99952L12 5.58349L19.4904 8.99952Z" fill="black"/>
</svg>
