<svg width="24" height="24" viewBox="0 0 24 24" fill="none" xmlns="http://www.w3.org/2000/svg">
<path fill-rule="evenodd" clip-rule="evenodd" d="M14 4C17.1726 4 19.8989 6.12422 20.7365 9.09108C22.0373 9.41941 23 10.5973 23 12V15C23 16.4391 21.9835 17.6517 20.5872 17.9383L20.8944 18.5528C21.1414 19.0468 20.9412 19.6474 20.4472 19.8944C19.9885 20.1238 19.4378 19.9675 19.1637 19.5485L19.1056 19.4472L18.382 18H5.61803L4.89443 19.4472C4.64744 19.9412 4.04676 20.1414 3.55279 19.8944C3.09409 19.6651 2.88869 19.1308 3.05944 18.6601L3.10557 18.5528L3.41088 17.9422C2.03612 17.6684 1 16.4552 1 15V12C1 10.5972 1.96279 9.41932 3.2636 9.09105C4.10378 6.11629 6.83487 4 10 4H14ZM19.0405 16.0006C19.0131 15.9995 18.9856 15.9995 18.958 16.0006L5.02364 16C5.0084 15.9997 4.99318 15.9997 4.97799 16L4 16C3.44772 16 3 15.5523 3 15V12C3 11.4477 3.44772 11 4 11L4.00444 11C4.0179 11.001 4.03144 11.0018 4.04507 11.0023L4.08968 11.004C4.54448 11.0444 4.91173 11.3893 4.98619 11.8334C4.99526 11.8877 5 11.9433 5 12V13C5 13.5523 5.44772 14 6 14H18C18.5523 14 19 13.5523 19 13V12L19.0039 11.9115C19.0349 11.5582 19.2495 11.2576 19.5518 11.1058C19.6418 11.0614 19.7396 11.0297 19.8425 11.0136L19.9574 11.0024C19.9708 11.0019 19.9842 11.0011 19.9975 11L20 11C20.5523 11 21 11.4477 21 12V15C21 15.5243 20.5945 15.9589 20.0757 15.9972L19.9633 16.0007L19.0405 16.0006ZM11 6H10C7.9283 6 6.11625 7.27005 5.36861 9.10448L5.29528 9.29327C5.31304 9.30178 5.33069 9.31046 5.34824 9.3193L5.3525 9.32132C5.66996 9.48187 5.95455 9.69705 6.19427 9.95421C6.69413 10.4901 7 11.2093 7 12H11V6ZM13 12V6H14L14.2287 6.00517C16.2009 6.0945 17.9004 7.33312 18.6258 9.09679L18.7019 9.29464C17.695 9.77864 17 10.8082 17 12H13Z" fill="black"/>
</svg>
