<svg width="24" height="24" viewBox="0 0 24 24" fill="none" xmlns="http://www.w3.org/2000/svg">
<path d="M22 12.0611C22 6.50452 17.5228 2 12 2C6.47715 2 2 6.50452 2 12.0611C2 17.0829 5.65686 21.2453 10.4375 22V14.9694H7.89844V12.0611H10.4375V9.84454C10.4375 7.32296 11.9304 5.93013 14.2146 5.93013C15.3087 5.93013 16.4531 6.12664 16.4531 6.12664V8.60262H15.1921C13.9499 8.60262 13.5625 9.37817 13.5625 10.1738V12.0611H16.3359L15.8926 14.9694H13.5625V22C18.3431 21.2453 22 17.0829 22 12.0611Z" fill="black"/>
</svg>
