<svg width="24" height="24" viewBox="0 0 24 24" fill="none" xmlns="http://www.w3.org/2000/svg">
<path fill-rule="evenodd" clip-rule="evenodd" d="M2 4H22C22.5523 4 23 4.44772 23 5V18C23 18.5523 22.5523 19 22 19H2C1.44772 19 1 18.5523 1 18V5C1 4.44772 1.44772 4 2 4ZM21 17V6H3V17H21ZM18.5833 13.5C19.1356 13.5 19.5833 13.9477 19.5833 14.5C19.5833 15.0128 19.1973 15.4355 18.7 15.4933L18.5833 15.5H14.4167C13.8644 15.5 13.4167 15.0523 13.4167 14.5C13.4167 13.9872 13.8027 13.5645 14.3 13.5067L14.4167 13.5H18.5833ZM17 8H18C18.5523 8 19 8.44772 19 9V10C19 10.5523 18.5523 11 18 11H17C16.4477 11 16 10.5523 16 10V9C16 8.44772 16.4477 8 17 8Z" fill="black"/>
</svg>
